\relax 
\providecommand\hyper@newdestlabel[2]{}
\@writefile{toc}{\contentsline {chapter}{\numberline {A}Example Polygons}{x}{appendix.A}}
\@writefile{lof}{\addvspace {10\p@ }}
\@writefile{lot}{\addvspace {10\p@ }}
\@writefile{loa}{\addvspace {10\p@ }}
\newlabel{sec:citygml_bef}{{A.1}{x}{Non-planar Polygon}{section.A.1}{}}
\@writefile{toc}{\contentsline {section}{\numberline {A.1}Non-planar Polygon }{x}{section.A.1}}
\newlabel{code:sample1}{{A.1}{x}{A non-planar polygon (.gml format)}{lstlisting.A.1}{}}
\@writefile{lol}{\contentsline {lstlisting}{\numberline {A.1}A non-planar polygon (.gml format)}{x}{lstlisting.A.1}}
\newlabel{sec:citygml_aft}{{A.2}{xi}{Repaired Polygons}{section.A.2}{}}
\@writefile{toc}{\contentsline {section}{\numberline {A.2}Repaired Polygons }{xi}{section.A.2}}
\newlabel{code:sample2}{{A.2}{xi}{A newly created planar polygon (.gml format)}{lstlisting.A.2}{}}
\@writefile{lol}{\contentsline {lstlisting}{\numberline {A.2}A newly created planar polygon (.gml format)}{xi}{lstlisting.A.2}}
\@setckpt{./misc/appendixA}{
\setcounter{page}{12}
\setcounter{equation}{0}
\setcounter{enumi}{0}
\setcounter{enumii}{0}
\setcounter{enumiii}{0}
\setcounter{enumiv}{0}
\setcounter{footnote}{0}
\setcounter{mpfootnote}{0}
\setcounter{part}{0}
\setcounter{chapter}{1}
\setcounter{section}{2}
\setcounter{subsection}{0}
\setcounter{subsubsection}{0}
\setcounter{paragraph}{0}
\setcounter{subparagraph}{0}
\setcounter{figure}{0}
\setcounter{table}{0}
\setcounter{NAT@ctr}{42}
\setcounter{float@type}{8}
\setcounter{parentequation}{0}
\setcounter{lstnumber}{27}
\setcounter{Item}{0}
\setcounter{Hfootnote}{8}
\setcounter{bookmark@seq@number}{53}
\setcounter{AM@survey}{0}
\setcounter{nlinenum}{0}
\setcounter{ContinuedFloat}{0}
\setcounter{KVtest}{1}
\setcounter{subfigure}{0}
\setcounter{subfigure@save}{0}
\setcounter{lofdepth}{1}
\setcounter{subtable}{0}
\setcounter{subtable@save}{0}
\setcounter{lotdepth}{1}
\setcounter{AlgoLine}{0}
\setcounter{algocfline}{0}
\setcounter{algocfproc}{0}
\setcounter{algocf}{0}
\setcounter{savepage}{10}
\setcounter{lstlisting}{2}
\setcounter{section@level}{1}
}
