\relax 
\providecommand\hyper@newdestlabel[2]{}
\providecommand\HyperFirstAtBeginDocument{\AtBeginDocument}
\HyperFirstAtBeginDocument{\ifx\hyper@anchor\@undefined
\global\let\oldcontentsline\contentsline
\gdef\contentsline#1#2#3#4{\oldcontentsline{#1}{#2}{#3}}
\global\let\oldnewlabel\newlabel
\gdef\newlabel#1#2{\newlabelxx{#1}#2}
\gdef\newlabelxx#1#2#3#4#5#6{\oldnewlabel{#1}{{#2}{#3}}}
\AtEndDocument{\ifx\hyper@anchor\@undefined
\let\contentsline\oldcontentsline
\let\newlabel\oldnewlabel
\fi}
\fi}
\global\let\hyper@last\relax 
\gdef\HyperFirstAtBeginDocument#1{#1}
\providecommand\HyField@AuxAddToFields[1]{}
\providecommand\HyField@AuxAddToCoFields[2]{}
\providecommand \oddpage@label [2]{}
\@writefile{toc}{\contentsline {chapter}{Abstract}{i}{section*.1}}
\@writefile{toc}{\contentsline {chapter}{Zusammenfassung}{ii}{section*.3}}
\@writefile{toc}{\contentsline {chapter}{Acknowledgments}{iii}{section*.5}}
\@writefile{toc}{\contentsline {chapter}{Contents}{iv}{section*.7}}
\@writefile{toc}{\contentsline {chapter}{List of Figures}{vi}{section*.9}}
\@writefile{toc}{\contentsline {chapter}{List of Tables}{viii}{section*.11}}
\@writefile{toc}{\contentsline {chapter}{List of Abbreviations}{ix}{section*.13}}
\citation{2009_Kolbe}
\citation{2013_virtual_3d_city_modeling}
\citation{2016_3dgeoinfo_citygml_errors}
\citation{2014_zhao_citygmlrepair}
\citation{2009_Nagel}
\citation{2003_ISO19107}
\citation{2012_ogc_CityGML}
\citation{2016_ogc_qie}
\citation{2016_3dgeoinfo_citygml_errors}
\citation{2013_Geometric-semantical_consistency_validation}
\citation{2013_Geometric-semantical_consistency_validation}
\@writefile{toc}{\contentsline {chapter}{\numberline {1}Introduction }{1}{chapter.1}}
\@writefile{lof}{\addvspace {10\p@ }}
\@writefile{lot}{\addvspace {10\p@ }}
\newlabel{cha:chapter1}{{1}{1}{Introduction}{chapter.1}{}}
\@writefile{loa}{\addvspace {10\p@ }}
\citation{2011_Groeger}
\citation{2015_ijgi_3dapps}
\citation{2016_3dgeoinfo_citygml_errors}
\citation{2013_Geometric-semantical_consistency_validation}
\citation{2013_N_alam_automatic_healing}
\citation{2016_3dgeoinfo_citygml_errors}
\@writefile{lof}{\contentsline {figure}{\numberline {1.1}{\ignorespaces Planarity error}}{2}{figure.caption.15}}
\providecommand*\caption@xref[2]{\@setref\relax\@undefined{#1}}
\newlabel{fig:fig_NonP}{{1.1}{2}{Planarity error}{figure.caption.15}{}}
\newlabel{sec:moti}{{1.1}{2}{Motivation}{section.1.1}{}}
\@writefile{toc}{\contentsline {section}{\numberline {1.1}Motivation}{2}{section.1.1}}
\newlabel{sec:objective}{{1.2}{3}{Objective}{section.1.2}{}}
\@writefile{toc}{\contentsline {section}{\numberline {1.2}Objective}{3}{section.1.2}}
\citation{2007_ogc_GML}
\citation{2012_ogc_CityGML}
\citation{2012_ogc_CityGML}
\citation{2009_Kolbe}
\citation{2016_ogc_qie}
\citation{2003_ISO19107}
\citation{2016_ogc_qie}
\citation{2016_ogc_qie}
\citation{2012_ogc_CityGML}
\@writefile{toc}{\contentsline {chapter}{\numberline {2}Background }{5}{chapter.2}}
\@writefile{lof}{\addvspace {10\p@ }}
\@writefile{lot}{\addvspace {10\p@ }}
\newlabel{cha:chapter2}{{2}{5}{Background}{chapter.2}{}}
\@writefile{loa}{\addvspace {10\p@ }}
\newlabel{sec:sota}{{2.1}{5}{Spatial Geometry Model}{section.2.1}{}}
\@writefile{toc}{\contentsline {section}{\numberline {2.1}Spatial Geometry Model }{5}{section.2.1}}
\citation{2014_SIG3D}
\@writefile{lof}{\contentsline {figure}{\numberline {2.1}{\ignorespaces ISO 19107 geometric primitives}}{6}{figure.caption.16}}
\newlabel{fig:ISOPrim}{{2.1}{6}{ISO 19107 geometric primitives}{figure.caption.16}{}}
\newlabel{sec:Lrings}{{2.1.1}{6}{GML Linear Ring}{subsection.2.1.1}{}}
\@writefile{toc}{\contentsline {subsection}{\numberline {2.1.1}GML Linear Ring }{6}{subsection.2.1.1}}
\citation{2014_SIG3D}
\citation{2014_SIG3D}
\citation{2014_SIG3D}
\@writefile{lof}{\contentsline {figure}{\numberline {2.2}{\ignorespaces Examples of valid and invalid linear rings}}{7}{figure.caption.17}}
\newlabel{fig:LinearRing}{{2.2}{7}{Examples of valid and invalid linear rings}{figure.caption.17}{}}
\newlabel{sec:polygon}{{2.1.2}{7}{GML Polygon}{subsection.2.1.2}{}}
\@writefile{toc}{\contentsline {subsection}{\numberline {2.1.2}GML Polygon }{7}{subsection.2.1.2}}
\citation{2014_SIG3D}
\citation{2014_SIG3D}
\citation{2014_SIG3D}
\citation{2014_SIG3D}
\citation{2015_N_alam_Geom_validation,2016_3dgeoinfo_citygml_errors}
\@writefile{lof}{\contentsline {figure}{\numberline {2.3}{\ignorespaces Examples of valid polygons}}{8}{figure.caption.18}}
\newlabel{fig:Polygon1}{{2.3}{8}{Examples of valid polygons}{figure.caption.18}{}}
\@writefile{lof}{\contentsline {figure}{\numberline {2.4}{\ignorespaces Examples of invalid polygons}}{8}{figure.caption.19}}
\newlabel{fig:Polygon2}{{2.4}{8}{Examples of invalid polygons}{figure.caption.19}{}}
\citation{2016_ogc_qie}
\newlabel{sec:req}{{2.2}{9}{Problem Definitions}{section.2.2}{}}
\@writefile{toc}{\contentsline {section}{\numberline {2.2}Problem Definitions }{9}{section.2.2}}
\newlabel{sec:cmn_errors}{{2.2.1}{9}{Errors in 3D Building Model}{subsection.2.2.1}{}}
\@writefile{toc}{\contentsline {subsection}{\numberline {2.2.1}Errors in 3D Building Model }{9}{subsection.2.2.1}}
\citation{2016_3dgeoinfo_citygml_errors}
\citation{2016_ogc_qie}
\citation{2016_ogc_qie}
\citation{2016_ogc_qie}
\newlabel{sec:nPlanarity}{{2.2.2}{10}{Planarity Error}{subsection.2.2.2}{}}
\@writefile{toc}{\contentsline {subsection}{\numberline {2.2.2}Planarity Error }{10}{subsection.2.2.2}}
\@writefile{lot}{\contentsline {table}{\numberline {2.1}{\ignorespaces Vendor-specific planarity error codes}}{10}{table.caption.20}}
\newlabel{tab:qie_all}{{2.1}{10}{Vendor-specific planarity error codes}{table.caption.20}{}}
\citation{2016_3dgeoinfo_citygml_errors}
\citation{2014_SIG3D}
\citation{2016_3dgeoinfo_citygml_errors}
\@writefile{toc}{\contentsline {subsubsection}{\numberline {2.2.2.1}DISTANCE\_PLANE Error}{11}{subsubsection.2.2.2.1}}
\@writefile{lof}{\contentsline {figure}{\numberline {2.5}{\ignorespaces Perpendicular distance from a vertex to the adjusted plane}}{11}{figure.caption.21}}
\newlabel{fig:NonPlanarity1}{{2.5}{11}{Perpendicular distance from a vertex to the adjusted plane}{figure.caption.21}{}}
\citation{2016_3dgeoinfo_citygml_errors}
\citation{2013_solid_validation}
\citation{2013_solid_validation}
\@writefile{lof}{\contentsline {figure}{\numberline {2.6}{\ignorespaces Non-planar polygon on the ground surface.\relax }}{12}{figure.caption.22}}
\newlabel{fig:np_polygon_gs}{{2.6}{12}{Non-planar polygon on the ground surface.\relax }{figure.caption.22}{}}
\@writefile{toc}{\contentsline {subsubsection}{\numberline {2.2.2.2}NORMALS\_DEVIATION Error}{12}{subsubsection.2.2.2.2}}
\citation{2016_3dgeoinfo_citygml_errors}
\@writefile{lof}{\contentsline {figure}{\numberline {2.7}{\ignorespaces Small folds in the polygon}}{13}{figure.caption.23}}
\newlabel{fig:NonPlanarity2}{{2.7}{13}{Small folds in the polygon}{figure.caption.23}{}}
\@writefile{toc}{\contentsline {subsubsection}{\numberline {2.2.2.3}Floating Point Number Error}{13}{subsubsection.2.2.2.3}}
\@writefile{lof}{\contentsline {figure}{\numberline {2.8}{\ignorespaces Cracks in the solid}}{13}{figure.caption.24}}
\newlabel{fig:flt_error1}{{2.8}{13}{Cracks in the solid}{figure.caption.24}{}}
\@writefile{lof}{\contentsline {figure}{\numberline {2.9}{\ignorespaces Intersection of surfaces}}{14}{figure.caption.25}}
\newlabel{fig:flt_error2}{{2.9}{14}{Intersection of surfaces}{figure.caption.25}{}}
\citation{2013_Geom_validation_NAlam}
\citation{2013_Geometric-semantical_consistency_validation}
\citation{2013_N_alam_automatic_healing}
\citation{2013_solid_validation}
\@writefile{toc}{\contentsline {chapter}{\numberline {3}Related Work }{15}{chapter.3}}
\@writefile{lof}{\addvspace {10\p@ }}
\@writefile{lot}{\addvspace {10\p@ }}
\newlabel{cha:chapter3}{{3}{15}{Related Work}{chapter.3}{}}
\@writefile{loa}{\addvspace {10\p@ }}
\citation{2013_solid_validation}
\citation{2013_solid_validation}
\citation{2013_N_alam_automatic_healing}
\@writefile{lof}{\contentsline {figure}{\numberline {3.1}{\ignorespaces val3dity online validation platform}}{16}{figure.caption.26}}
\newlabel{fig:validity}{{3.1}{16}{val3dity online validation platform}{figure.caption.26}{}}
\citation{2013_N_alam_automatic_healing}
\citation{2013_N_alam_automatic_healing}
\citation{2013_N_alam_automatic_healing}
\citation{2016_ogc_qie}
\citation{2016_automatic_enhancing_lod2_buildings}
\@writefile{lof}{\contentsline {figure}{\numberline {3.2}{\ignorespaces Semantic surface-specific healing technique}}{17}{figure.caption.27}}
\newlabel{fig:Error_GS_WS_RS}{{3.2}{17}{Semantic surface-specific healing technique}{figure.caption.27}{}}
\citation{2016_automatic_enhancing_lod2_buildings}
\citation{2016_automatic_enhancing_lod2_buildings}
\citation{2016_3dgeoinfo_citygml_errors}
\citation{2013_solid_validation}
\citation{2014_SIG3D}
\citation{2016_ogc_qie}
\citation{2016_ogc_qie}
\citation{2016_ogc_qie}
\@writefile{lof}{\contentsline {figure}{\numberline {3.3}{\ignorespaces Polygon triangulation technique}}{18}{figure.caption.28}}
\newlabel{fig:Triangulation}{{3.3}{18}{Polygon triangulation technique}{figure.caption.28}{}}
\citation{2016_ogc_qie}
\citation{2012_repairing_invalid_polygons}
\citation{2012_Zhao_hand_made_3D_model}
\citation{2013_Zhao_shrink_wrapping}
\citation{2014_zhao_citygmlrepair}
\citation{2018_Planarization}
\citation{2007_Kramer}
\@writefile{lof}{\contentsline {figure}{\numberline {3.4}{\ignorespaces virtualcity validation framework}}{19}{figure.caption.29}}
\newlabel{fig:virtualcity_validator}{{3.4}{19}{virtualcity validation framework}{figure.caption.29}{}}
\citation{2006_berlin_3D_city_model}
\citation{2009_Nagel}
\citation{2011_Groeger}
\citation{2010_Quality_buildings}
\@writefile{toc}{\contentsline {chapter}{\numberline {4}Validation and Automatic Repair Methodology }{21}{chapter.4}}
\@writefile{lof}{\addvspace {10\p@ }}
\@writefile{lot}{\addvspace {10\p@ }}
\newlabel{cha:chapter4}{{4}{21}{Validation and Automatic Repair Methodology}{chapter.4}{}}
\@writefile{loa}{\addvspace {10\p@ }}
\citation{2016_3dgeoinfo_citygml_errors}
\newlabel{sec:planarity}{{4.1}{22}{Validity Criteria}{section.4.1}{}}
\@writefile{toc}{\contentsline {section}{\numberline {4.1}Validity Criteria }{22}{section.4.1}}
\newlabel{sec:tol}{{4.1.1}{22}{Tolerances}{subsection.4.1.1}{}}
\@writefile{toc}{\contentsline {subsection}{\numberline {4.1.1}Tolerances }{22}{subsection.4.1.1}}
\@writefile{toc}{\contentsline {subsubsection}{\numberline {4.1.1.1}Tolerance for DISTANCE\_PLANE Error}{22}{subsubsection.4.1.1.1}}
\@writefile{toc}{\contentsline {subsubsection}{\numberline {4.1.1.2}Tolerance for NORMALS\_DEVIATION Error}{22}{subsubsection.4.1.1.2}}
\citation{2017_cgal_hds}
\citation{2017_cgal_hds}
\citation{2017_cgal_hds}
\newlabel{sec:flt_error}{{4.1.1.3}{23}{Snapping Tolerance}{subsubsection.4.1.1.3}{}}
\@writefile{toc}{\contentsline {subsubsection}{\numberline {4.1.1.3}Snapping Tolerance }{23}{subsubsection.4.1.1.3}}
\newlabel{sec:err_dep}{{4.1.2}{23}{Error Dependencies}{subsection.4.1.2}{}}
\@writefile{toc}{\contentsline {subsection}{\numberline {4.1.2}Error Dependencies }{23}{subsection.4.1.2}}
\newlabel{sec:hds}{{4.1.3}{23}{Halfedge Data Structure}{subsection.4.1.3}{}}
\@writefile{toc}{\contentsline {subsection}{\numberline {4.1.3}Halfedge Data Structure }{23}{subsection.4.1.3}}
\@writefile{lof}{\contentsline {figure}{\numberline {4.1}{\ignorespaces Halfedge data structure}}{24}{figure.caption.30}}
\newlabel{fig:hds}{{4.1}{24}{Halfedge data structure}{figure.caption.30}{}}
\newlabel{sec:validation}{{4.2}{24}{Planarity Error Validation}{section.4.2}{}}
\@writefile{toc}{\contentsline {section}{\numberline {4.2}Planarity Error Validation }{24}{section.4.2}}
\newlabel{sec:valid_rules1}{{4.2.1}{24}{Validation Rules}{subsection.4.2.1}{}}
\@writefile{toc}{\contentsline {subsection}{\numberline {4.2.1}Validation Rules }{24}{subsection.4.2.1}}
\newlabel{eq:tol_1}{{4.1}{24}{Validation Rules}{equation.4.2.1}{}}
\citation{2016_ogc_qie,2016_3dgeoinfo_citygml_errors}
\newlabel{eq:tol_2}{{4.2}{25}{Validation Rules}{equation.4.2.2}{}}
\newlabel{eq:tol_3}{{4.3}{25}{Validation Rules}{equation.4.2.3}{}}
\@writefile{toc}{\contentsline {subsection}{\numberline {4.2.2}Distance between Two Vertices}{25}{subsection.4.2.2}}
\newlabel{eq:equ_dist}{{4.4}{25}{Distance between Two Vertices}{equation.4.2.4}{}}
\newlabel{sec:leastSquare_plane}{{4.2.3}{25}{Least-squares Plane-fitting}{subsection.4.2.3}{}}
\@writefile{toc}{\contentsline {subsection}{\numberline {4.2.3}Least-squares Plane-fitting }{25}{subsection.4.2.3}}
\newlabel{eq:equ_plane}{{4.5}{25}{Least-squares Plane-fitting}{equation.4.2.5}{}}
\newlabel{sec:dist_pln}{{4.2.4}{26}{Distance between a Point and the Adjusted Plane}{subsection.4.2.4}{}}
\@writefile{toc}{\contentsline {subsection}{\numberline {4.2.4}Distance between a Point and the Adjusted Plane }{26}{subsection.4.2.4}}
\newlabel{eq:dist_plane}{{4.6}{26}{Distance between a Point and the Adjusted Plane}{equation.4.2.6}{}}
\newlabel{sec:repair}{{4.3}{26}{Repair Methodology}{section.4.3}{}}
\@writefile{toc}{\contentsline {section}{\numberline {4.3}Repair Methodology }{26}{section.4.3}}
\newlabel{sec:rep_folds}{{4.3.1}{27}{Repair Folds in the Polygon}{subsection.4.3.1}{}}
\@writefile{toc}{\contentsline {subsection}{\numberline {4.3.1}Repair Folds in the Polygon }{27}{subsection.4.3.1}}
\@writefile{lof}{\contentsline {figure}{\numberline {4.2}{\ignorespaces Repair of small folds in the polygon.\relax }}{27}{figure.caption.31}}
\newlabel{fig:healing_fpe_1}{{4.2}{27}{Repair of small folds in the polygon.\relax }{figure.caption.31}{}}
\@writefile{lot}{\contentsline {table}{\numberline {4.1}{\ignorespaces Pseudo algorithm for the healing of folds in the polygon\relax }}{27}{table.caption.32}}
\newlabel{tab:alg0}{{4.1}{27}{Pseudo algorithm for the healing of folds in the polygon\relax }{table.caption.32}{}}
\newlabel{sec:rep_flt}{{4.3.2}{28}{Repair Floating Point Number Error}{subsection.4.3.2}{}}
\@writefile{toc}{\contentsline {subsection}{\numberline {4.3.2}Repair Floating Point Number Error }{28}{subsection.4.3.2}}
\@writefile{lof}{\contentsline {figure}{\numberline {4.3}{\ignorespaces Floating point number error.\relax }}{28}{figure.caption.33}}
\newlabel{fig:dup_before_rep}{{4.3}{28}{Floating point number error.\relax }{figure.caption.33}{}}
\@writefile{lot}{\contentsline {table}{\numberline {4.2}{\ignorespaces Pseudo algorithm for the healing of floating point number error\relax }}{29}{table.caption.34}}
\newlabel{tab:alg1}{{4.2}{29}{Pseudo algorithm for the healing of floating point number error\relax }{table.caption.34}{}}
\@writefile{lof}{\contentsline {figure}{\numberline {4.4}{\ignorespaces Repair of floating point number error.\relax }}{29}{figure.caption.35}}
\newlabel{fig:dup_after_repair}{{4.4}{29}{Repair of floating point number error.\relax }{figure.caption.35}{}}
\@writefile{lof}{\contentsline {figure}{\numberline {4.5}{\ignorespaces Healing of planarity error by repairing floating point number error}}{30}{figure.caption.36}}
\newlabel{fig:healing_fpe_2}{{4.5}{30}{Healing of planarity error by repairing floating point number error}{figure.caption.36}{}}
\newlabel{sec:ps_algo}{{4.3.3}{31}{Repair Planarity Error}{subsection.4.3.3}{}}
\@writefile{toc}{\contentsline {subsection}{\numberline {4.3.3}Repair Planarity Error }{31}{subsection.4.3.3}}
\@writefile{lof}{\contentsline {figure}{\numberline {4.6}{\ignorespaces Polygon splitting algorithm.\relax }}{31}{figure.caption.37}}
\newlabel{fig:face_split_points}{{4.6}{31}{Polygon splitting algorithm.\relax }{figure.caption.37}{}}
\@writefile{lof}{\contentsline {figure}{\numberline {4.7}{\ignorespaces 3D building model before and after healing.\relax }}{32}{figure.caption.38}}
\newlabel{fig:face_split}{{4.7}{32}{3D building model before and after healing.\relax }{figure.caption.38}{}}
\@writefile{lot}{\contentsline {table}{\numberline {4.3}{\ignorespaces Pseudo algorithm for the healing of planarity error\relax }}{33}{table.caption.39}}
\newlabel{tab:alg2}{{4.3}{33}{Pseudo algorithm for the healing of planarity error\relax }{table.caption.39}{}}
\citation{2017_cgal}
\citation{2013_solid_validation}
\@writefile{toc}{\contentsline {chapter}{\numberline {5}Prototype Implementation }{34}{chapter.5}}
\@writefile{lof}{\addvspace {10\p@ }}
\@writefile{lot}{\addvspace {10\p@ }}
\newlabel{cha:chapter5}{{5}{34}{Prototype Implementation}{chapter.5}{}}
\@writefile{loa}{\addvspace {10\p@ }}
\newlabel{sec:dev_struc}{{5.1}{34}{Development Frameworks}{section.5.1}{}}
\@writefile{toc}{\contentsline {section}{\numberline {5.1}Development Frameworks }{34}{section.5.1}}
\newlabel{sec:impl}{{5.2}{35}{Workflow}{section.5.2}{}}
\@writefile{toc}{\contentsline {section}{\numberline {5.2}Workflow }{35}{section.5.2}}
\@writefile{lof}{\contentsline {figure}{\numberline {5.1}{\ignorespaces Implementation workflow.\relax }}{35}{figure.caption.40}}
\newlabel{fig:impl_flowchart}{{5.1}{35}{Implementation workflow.\relax }{figure.caption.40}{}}
\citation{2017_cgal_Polyhedron}
\citation{2017_cgal_Nef}
\newlabel{sec:read_citygml}{{5.2.1}{36}{Read CityGML Model}{subsection.5.2.1}{}}
\@writefile{toc}{\contentsline {subsection}{\numberline {5.2.1}Read CityGML Model }{36}{subsection.5.2.1}}
\newlabel{sec:store_hds}{{5.2.2}{36}{CityGML to Polyhedral Surface}{subsection.5.2.2}{}}
\@writefile{toc}{\contentsline {subsection}{\numberline {5.2.2}CityGML to Polyhedral Surface }{36}{subsection.5.2.2}}
\newlabel{sec:check_folds}{{5.2.3}{36}{Check Folds in the Polygon}{subsection.5.2.3}{}}
\@writefile{toc}{\contentsline {subsection}{\numberline {5.2.3}Check Folds in the Polygon }{36}{subsection.5.2.3}}
\@writefile{lof}{\contentsline {figure}{\numberline {5.2}{\ignorespaces Validation flowchart for checking small folds in the polygon.\relax }}{37}{figure.caption.41}}
\newlabel{fig:impl_flowchart_check1}{{5.2}{37}{Validation flowchart for checking small folds in the polygon.\relax }{figure.caption.41}{}}
\newlabel{sec:rep_folds}{{5.2.4}{37}{Repair Folds in the Polygon}{subsection.5.2.4}{}}
\@writefile{toc}{\contentsline {subsection}{\numberline {5.2.4}Repair Folds in the Polygon }{37}{subsection.5.2.4}}
\newlabel{sec:preprocessing}{{5.2.5}{38}{Check Floating Point Number Error}{subsection.5.2.5}{}}
\@writefile{toc}{\contentsline {subsection}{\numberline {5.2.5}Check Floating Point Number Error }{38}{subsection.5.2.5}}
\@writefile{lof}{\contentsline {figure}{\numberline {5.3}{\ignorespaces Validation flowchart for checking rounding error.\relax }}{38}{figure.caption.42}}
\newlabel{fig:impl_flowchart_check2}{{5.3}{38}{Validation flowchart for checking rounding error.\relax }{figure.caption.42}{}}
\newlabel{sec:rep_flt_err}{{5.2.6}{39}{Repair Floating Point Number Error}{subsection.5.2.6}{}}
\@writefile{toc}{\contentsline {subsection}{\numberline {5.2.6}Repair Floating Point Number Error }{39}{subsection.5.2.6}}
\@writefile{lof}{\contentsline {figure}{\numberline {5.4}{\ignorespaces Repair flowchart for floating point number error.\relax }}{39}{figure.caption.43}}
\newlabel{fig:impl_flowchart_repair1}{{5.4}{39}{Repair flowchart for floating point number error.\relax }{figure.caption.43}{}}
\newlabel{sec:check_val}{{5.2.7}{39}{Planarity Check}{subsection.5.2.7}{}}
\@writefile{toc}{\contentsline {subsection}{\numberline {5.2.7}Planarity Check }{39}{subsection.5.2.7}}
\@writefile{lof}{\contentsline {figure}{\numberline {5.5}{\ignorespaces Planarity check workflow.\relax }}{40}{figure.caption.44}}
\newlabel{fig:impl_flowchart_check3}{{5.5}{40}{Planarity check workflow.\relax }{figure.caption.44}{}}
\newlabel{sec:healing_err}{{5.2.8}{40}{Healing of Planarity Error}{subsection.5.2.8}{}}
\@writefile{toc}{\contentsline {subsection}{\numberline {5.2.8}Healing of Planarity Error }{40}{subsection.5.2.8}}
\@writefile{lof}{\contentsline {figure}{\numberline {5.6}{\ignorespaces Overview of polygon splitting algorithm.\relax }}{41}{figure.caption.45}}
\newlabel{fig:impl_flowchart_repair2}{{5.6}{41}{Overview of polygon splitting algorithm.\relax }{figure.caption.45}{}}
\newlabel{sec:write_citygml}{{5.2.9}{42}{Generate Planarized CityGML Model}{subsection.5.2.9}{}}
\@writefile{toc}{\contentsline {subsection}{\numberline {5.2.9}Generate Planarized CityGML Model }{42}{subsection.5.2.9}}
\newlabel{sec:error_report}{{5.2.10}{42}{Test Report}{subsection.5.2.10}{}}
\@writefile{toc}{\contentsline {subsection}{\numberline {5.2.10}Test Report }{42}{subsection.5.2.10}}
\@writefile{toc}{\contentsline {chapter}{\numberline {6}Experimental Results and Discussion }{43}{chapter.6}}
\@writefile{lof}{\addvspace {10\p@ }}
\@writefile{lot}{\addvspace {10\p@ }}
\newlabel{cha:chapter6}{{6}{43}{Experimental Results and Discussion}{chapter.6}{}}
\@writefile{loa}{\addvspace {10\p@ }}
\newlabel{sec:ex_res}{{6.1}{43}{Experimental Results}{section.6.1}{}}
\@writefile{toc}{\contentsline {section}{\numberline {6.1}Experimental Results }{43}{section.6.1}}
\@writefile{lof}{\contentsline {figure}{\numberline {6.1}{\ignorespaces LOD2 CityGML building models}}{44}{figure.caption.46}}
\newlabel{fig:Testdatasets}{{6.1}{44}{LOD2 CityGML building models}{figure.caption.46}{}}
\@writefile{lot}{\contentsline {table}{\numberline {6.1}{\ignorespaces List of test datasets\relax }}{44}{table.caption.47}}
\newlabel{tab:test_data}{{6.1}{44}{List of test datasets\relax }{table.caption.47}{}}
\citation{2014_SIG3D}
\citation{2016_ogc_qie}
\@writefile{lot}{\contentsline {table}{\numberline {6.2}{\ignorespaces Default tolerances for the test datasets\relax }}{45}{table.caption.48}}
\newlabel{tab:test_data_config}{{6.2}{45}{Default tolerances for the test datasets\relax }{table.caption.48}{}}
\@writefile{lot}{\contentsline {table}{\numberline {6.3}{\ignorespaces The effect of imprecise least-squares plane-fitting}}{45}{table.caption.49}}
\newlabel{tab:comp_epsilon}{{6.3}{45}{The effect of imprecise least-squares plane-fitting}{table.caption.49}{}}
\@writefile{lot}{\contentsline {table}{\numberline {6.4}{\ignorespaces Imaginary deviations added to the test datasets\relax }}{46}{table.caption.50}}
\newlabel{tab:test_data_img}{{6.4}{46}{Imaginary deviations added to the test datasets\relax }{table.caption.50}{}}
\@writefile{lot}{\contentsline {table}{\numberline {6.5}{\ignorespaces Comparison between simple and least-squares plane fitting}}{46}{table.caption.51}}
\newlabel{tab:comp_plane}{{6.5}{46}{Comparison between simple and least-squares plane fitting}{table.caption.51}{}}
\@writefile{lot}{\contentsline {table}{\numberline {6.6}{\ignorespaces Non-planar polygons for different tolerance values\relax }}{47}{table.caption.52}}
\newlabel{tab:comp_poly}{{6.6}{47}{Non-planar polygons for different tolerance values\relax }{table.caption.52}{}}
\@writefile{lot}{\contentsline {table}{\numberline {6.7}{\ignorespaces Number of polygons before and after the repair}}{47}{table.caption.53}}
\newlabel{tab:plan_results}{{6.7}{47}{Number of polygons before and after the repair}{table.caption.53}{}}
\@writefile{lot}{\contentsline {table}{\numberline {6.8}{\ignorespaces Number of newly created polygons after repair\relax }}{48}{table.caption.54}}
\newlabel{tab:split_vertices}{{6.8}{48}{Number of newly created polygons after repair\relax }{table.caption.54}{}}
\citation{2013_solid_validation}
\newlabel{code:sample1}{{6.1}{49}{Test report for the healing of planarity error (dataset 4)}{lstlisting.6.1}{}}
\@writefile{lol}{\contentsline {lstlisting}{\numberline {6.1}Test report for the healing of planarity error (dataset 4)}{49}{lstlisting.6.1}}
\@writefile{lot}{\contentsline {table}{\numberline {6.9}{\ignorespaces Comparison of the validation and repair results with val3dity}}{50}{table.caption.55}}
\newlabel{tab:plan_results_comp}{{6.9}{50}{Comparison of the validation and repair results with val3dity}{table.caption.55}{}}
\newlabel{sec:dissc}{{6.2}{50}{Problems and Discussion}{section.6.2}{}}
\@writefile{toc}{\contentsline {section}{\numberline {6.2}Problems and Discussion }{50}{section.6.2}}
\@writefile{lof}{\contentsline {figure}{\numberline {6.2}{\ignorespaces How the vertices of a polygon are stored in HDS}}{51}{figure.caption.56}}
\newlabel{fig:hds-1}{{6.2}{51}{How the vertices of a polygon are stored in HDS}{figure.caption.56}{}}
\@writefile{lof}{\contentsline {figure}{\numberline {6.3}{\ignorespaces Vertex incident to less than three faces.\relax }}{53}{figure.caption.57}}
\newlabel{fig:vertex_3faces}{{6.3}{53}{Vertex incident to less than three faces.\relax }{figure.caption.57}{}}
\@writefile{lof}{\contentsline {figure}{\numberline {6.4}{\ignorespaces Triangular polygons created by the healing technique.\relax }}{54}{figure.caption.58}}
\newlabel{fig:vertex_triangular_faces}{{6.4}{54}{Triangular polygons created by the healing technique.\relax }{figure.caption.58}{}}
\citation{2014_SIG3D,2016_ogc_qie}
\@writefile{toc}{\contentsline {chapter}{\numberline {7}Conclusions and Future Work }{55}{chapter.7}}
\@writefile{lof}{\addvspace {10\p@ }}
\@writefile{lot}{\addvspace {10\p@ }}
\newlabel{cha:chapter7}{{7}{55}{Conclusions and Future Work}{chapter.7}{}}
\@writefile{loa}{\addvspace {10\p@ }}
\citation{*}
\bibstyle{isprs}
\bibdata{./bib/references}
\bibcite{2010_Quality_buildings}{{1}{2010}{{Akca et al.}}{{}}}
\bibcite{2013_N_alam_automatic_healing}{{2}{2013}{{Alam et al.}}{{}}}
\bibcite{2014_NAlam_Springer_automatic_repair}{{3}{2014}{{Alam et al.}}{{}}}
\bibcite{2012_Becker}{{4}{2013}{{Becker et al.}}{{}}}
\bibcite{2008_Comp_Geom}{{5}{2008}{{Berg et al.}}{{}}}
\bibcite{2017_cagis_lod_error_propagation}{{6}{2017}{{Biljecki et al.}}{{}}}
\bibcite{2016_3dgeoinfo_citygml_errors}{{7}{2016}{{Biljecki et al.}}{{}}}
\bibcite{2015_ijgi_3dapps}{{8}{2015}{{Biljecki et al.}}{{}}}
\bibcite{2016_automatic_enhancing_lod2_buildings}{{9}{2015}{{Boeters et al.}}{{}}}
\@writefile{toc}{\contentsline {chapter}{Bibliography}{57}{section*.59}}
\bibcite{2010_Towards_automated_healing}{{10}{2010}{{Bogdahn and Coors}}{{}}}
\bibcite{2017_cgal_SM}{{11}{2017}{{Botsch et al.}}{{}}}
\bibcite{2012_PM_repairing}{{12}{2012}{{Campen et al.}}{{}}}
\bibcite{2011_Integrating_quality_mgnt}{{13}{2011}{{Coors and Krämer}}{{}}}
\bibcite{2006_berlin_3D_city_model}{{14}{2006}{{Döllner et al.}}{{}}}
\bibcite{2011_Quality_analysis_on_3D_buildings}{{15}{2011}{{Elberink and Vosselman}}{{}}}
\bibcite{2018_Planarization}{{16}{2018}{{Goebbels et al.}}{{}}}
\bibcite{2011_Groeger}{{17}{2011}{{Gr{\"o}ger and Pl{\"u}mer}}{{}}}
\bibcite{2010_kada_auto_reconstruction}{{18}{2010}{{Haala and Kada}}{{}}}
\bibcite{2017_cgal_Nef}{{19}{2017}{{Hachenberger and Kettner}}{{}}}
\bibcite{2003_ISO19107}{{20}{2003}{{ISO}}{{}}}
\bibcite{2013_3D_city_modelling_applications}{{21}{2013}{{Jain et al.}}{{}}}
\bibcite{2017_cgal_Polyhedron}{{22}{2017a}{{Kettner}}{{}}}
\bibcite{2017_cgal_hds}{{23}{2017b}{{Kettner}}{{}}}
\bibcite{2009_Kolbe}{{24}{2009}{{Kolbe}}{{}}}
\bibcite{2007_Kramer}{{25}{2007}{{Kr{\"{a}}mer et al.}}{{}}}
\bibcite{2013_solid_validation}{{26}{2013}{{Ledoux}}{{}}}
\bibcite{2012_repairing_invalid_polygons}{{27}{2012}{{Ledoux et al.}}{{}}}
\bibcite{2009_Nagel}{{28}{2009}{{Nagel et al.}}{{}}}
\bibcite{2007_ogc_GML}{{29}{2007}{{OGC}}{{}}}
\bibcite{2011_ogc_Simple_feature_access}{{30}{2011}{{OGC}}{{}}}
\bibcite{2012_ogc_CityGML}{{31}{2012}{{OGC}}{{}}}
\bibcite{2016_ogc_qie}{{32}{2016}{{OGC}}{{}}}
\bibcite{2016_automatic_processing_for_simulation}{{33}{2016}{{Piepereit et al.}}{{}}}
\bibcite{2014_SIG3D}{{34}{2014}{{SIG3D}}{{}}}
\bibcite{2013_virtual_3d_city_modeling}{{35}{2013}{{Singh et al.}}{{}}}
\bibcite{2017_cgal}{{36}{2017}{{The CGAL Project}}{{}}}
\bibcite{2013_Geom_validation_NAlam}{{37}{2013a}{{Wagner et al.}}{{}}}
\bibcite{2015_N_alam_Geom_validation}{{38}{2015}{{Wagner et al.}}{{}}}
\bibcite{2013_Geometric-semantical_consistency_validation}{{39}{2013b}{{Wagner et al.}}{{}}}
\bibcite{2013_Zhao_shrink_wrapping}{{40}{2013}{{Zhao et al.}}{{}}}
\bibcite{2014_zhao_citygmlrepair}{{41}{2014}{{Zhao et al.}}{{}}}
\bibcite{2012_Zhao_hand_made_3D_model}{{42}{2012}{{Zhao et al.}}{{}}}
\@input{./misc/appendixA.aux}
\@input{./misc/appendixB.aux}
\@writefile{toc}{\contentsline {chapter}{Declaration of Authorship}{xiii}{section*.61}}
